index
…
library(tidyverse)
library(palmerpenguins)

penguins

# A tibble: 344 × 8
   species island    bill_length_mm bill_depth_mm flipper_length_mm body_mass_g sex     year
   <fct>   <fct>              <dbl>         <dbl>             <int>       <int> <fct>  <int>
 1 Adelie  Torgersen           39.1          18.7               181        3750 male    2007
 2 Adelie  Torgersen           39.5          17.4               186        3800 female  2007
 3 Adelie  Torgersen           40.3          18                 195        3250 female  2007
 4 Adelie  Torgersen           NA            NA                  NA          NA <NA>    2007
 5 Adelie  Torgersen           36.7          19.3               193        3450 female  2007
 6 Adelie  Torgersen           39.3          20.6               190        3650 male    2007
 7 Adelie  Torgersen           38.9          17.8               181        3625 female  2007
 8 Adelie  Torgersen           39.2          19.6               195        4675 male    2007
 9 Adelie  Torgersen           34.1          18.1               193        3475 <NA>    2007
10 Adelie  Torgersen           42            20.2               190        4250 <NA>    2007
# ℹ 334 more rows
…
• Centering and scaling for: bill_length_mm, bill_depth_mm, body_mass_g | Trained

• PCA extraction with: bill_length_mm, bill_depth_mm, body_mass_g | Trained

Application

penguins %>% 
  recipe(flipper_length_mm  ~ .) %>% 
  step_impute_mean(all_numeric_predictors(), -year) %>% 
  step_normalize(all_numeric_predictors(), -year) %>% 
  step_pca(all_numeric_predictors(), -year, num_comp = 2) %>% 
  prep() %>% 
  bake(new_data = NULL)

# A tibble: 344 × 7
   species island    sex     year flipper_length_mm       PC1        PC2
   <fct>   <fct>     <fct>  <int>             <int>     <dbl>      <dbl>
 1 Adelie  Torgersen male    2007               181 -1.27     -0.0476   
 2 Adelie  Torgersen female  2007               186 -0.854     0.429    
 3 Adelie  Torgersen female  2007               195 -1.37      0.157    
 4 Adelie  Torgersen <NA>    2007                NA  0.000199 -0.0000262
 5 Adelie  Torgersen female  2007               193 -1.92      0.00581  
 6 Adelie  Torgersen male    2007               190 -1.81     -0.827    
 7 Adelie  Torgersen female  2007               181 -1.16      0.352    
 8 Adelie  Torgersen male    2007               195 -0.731    -0.522    
 9 Adelie  Torgersen <NA>    2007               193 -1.86      0.774    
10 Adelie  Torgersen <NA>    2007               190 -0.936    -1.03     
# ℹ 334 more rows
…
step_rownormalize_tss()

step_taxonomy()

…

pedcan_expression

Expression génique de 108 lignées cellulaires pour 5 cancers pédiatriques différents.

data("pedcan_expression")
pedcan_expression

# A tibble: 108 × 19,197
   cell_line sex    event      disease          A1BG   A1CF   A2M  A2ML1 A3GALT2 A4GALT  A4GNT  AAAS  AACS
   <chr>     <chr>  <chr>      <chr>           <dbl>  <dbl> <dbl>  <dbl>   <dbl>  <dbl>  <dbl> <dbl> <dbl>
 1 143B      Female Primary    Osteosarcoma     3.02 0.0566 2.78  0       0       2.13  0       5.55  2.90
 2 A-673     Female Primary    Ewing Sarcoma    4.87 0      2.00  3.19    0.0841  4.62  0.189   6.64  4.53
 3 BT-12     Female Primary    Embryonal Tumor  3.52 0.0286 0.111 0       0       2.32  0.0704  5.78  2.64
 4 BT-16     Male   Unknown    Embryonal Tumor  3.51 0      0.433 0.0144  0       1.54  0.0144  5.48  2.72
 5 C396      Male   Metastatic Osteosarcoma     4.59 0      0.956 0       0       5.10  0       4.81  2.70
 6 CADO-ES1  Female Metastatic Ewing Sarcoma    5.89 0      0.614 0.379   0.0704  6.60  0.151   6.08  3.92
 7 CAL-72    Male   Primary    Osteosarcoma     4.35 0.0426 0.333 0       0       0.614 0       4.53  3.42
 8 CBAGPN    Female Primary    Ewing Sarcoma    4.87 0.0976 1.33  0.111   0       0.722 0.0704  5.94  3.40
 9 CHLA-06   Female Unknown    Embryonal Tumor  5.05 0      0.124 0       0       0.848 0.138   4.11  2.22
10 CHLA-10   Female Unknown    Ewing Sarcoma    5.05 0.0144 0.949 1.73    0.0704  0.506 0.0704  5.86  4.65
# ℹ 98 more rows
# ℹ 19,184 more variables: AADAC <dbl>, AADACL2 <dbl>, AADACL3 <dbl>, AADACL4 <dbl>, AADAT <dbl>,
#   AAGAB <dbl>, AAK1 <dbl>, AAMDC <dbl>, AAMP <dbl>, AANAT <dbl>, AAR2 <dbl>, AARD <dbl>, AARS1 <dbl>,
#   AARS2 <dbl>, AARSD1 <dbl>, AASDH <dbl>, AASDHPPT <dbl>, AASS <dbl>, AATF <dbl>, AATK <dbl>, ABAT <dbl>, …
…
step_select_cv() en action

rec_cv <-
  # recipe(disease ~ ., data = pedcan_expression) %>%  # trop de variables pour une formule
  recipe(pedcan_expression) %>%                        # <- astuce pour éviter un débordement de pile
  update_role(disease, new_role = "output") %>%        #    bientôt résolu dans une future version de recipes
  update_role(-disease, new_role = "predictor") %>%    #
  step_select_cv(all_numeric_predictors(), prop_kept = 0.1) %>% 
  prep()

bake(rec_cv, new_data = NULL)

# A tibble: 108 × 1,923
   cell_line sex    event      disease   A1CF  AADAC AADACL3
   <fct>     <fct>  <fct>      <chr>    <dbl>  <dbl>   <dbl>
 1 143B      Female Primary    Osteos… 0.0566 0.0704       0
 2 A-673     Female Primary    Ewing … 0      0.151        0
 3 BT-12     Female Primary    Embryo… 0.0286 3.49         0
 4 BT-16     Male   Unknown    Embryo… 0      0.0286       0
 5 C396      Male   Metastatic Osteos… 0      0            0
 6 CADO-ES1  Female Metastatic Ewing … 0      0            0
 7 CAL-72    Male   Primary    Osteos… 0.0426 0            0
 8 CBAGPN    Female Primary    Ewing … 0.0976 0            0
 9 CHLA-06   Female Unknown    Embryo… 0      0            0
10 CHLA-10   Female Unknown    Ewing … 0.0144 0            0
# ℹ 98 more rows
# ℹ 1,916 more variables: ABCB11 <dbl>, ABCC12 <dbl>,
#   ABRA <dbl>, AC002456.2 <dbl>, AC008397.1 <dbl>,
#   ACOD1 <dbl>, ACSM1 <dbl>, ACSM2B <dbl>, ACSM5 <dbl>, …

tidy(rec_cv, 1)

# A tibble: 19,193 × 4
   terms       cv kept  id             
   <chr>    <dbl> <lgl> <chr>          
 1 A1BG    0.371  FALSE select_cv_3YfWC
 2 A1CF    4.60   TRUE  select_cv_3YfWC
 3 A2M     1.69   FALSE select_cv_3YfWC
 4 A2ML1   2.45   FALSE select_cv_3YfWC
 5 A3GALT2 2.37   FALSE select_cv_3YfWC
 6 A4GALT  0.979  FALSE select_cv_3YfWC
 7 A4GNT   1.53   FALSE select_cv_3YfWC
 8 AAAS    0.0934 FALSE select_cv_3YfWC
 9 AACS    0.194  FALSE select_cv_3YfWC
10 AADAC   3.40   TRUE  select_cv_3YfWC
# ℹ 19,183 more rows
…
Créer sa première étape

Dépendances sans dépendances

Outro

Gérer les lignées taxonomiques

data("cheese_taxonomy")

cheese_taxonomy %>% 
  select(asv, lineage)

# A tibble: 74 × 2
   asv    lineage                                                                                             
   <chr>  <chr>                                                                                               
 1 asv_01 k__Fungi|p__Ascomycota|c__Dothideomycetes|o__Dothideales|f__Dothioraceae|g__Aureobasidium|s__Aureob…
 2 asv_02 k__Fungi|p__Ascomycota|c__Eurotiomycetes|o__Eurotiales|f__Aspergillaceae|g__Aspergillus|s__Aspergil…
 3 asv_03 k__Fungi|p__Ascomycota|c__Eurotiomycetes|o__Eurotiales|f__Aspergillaceae|g__Penicillium|s__Penicill…
 4 asv_04 k__Fungi|p__Ascomycota|c__Eurotiomycetes|o__Eurotiales|f__Aspergillaceae|g__Penicillium|s__Penicill…
 5 asv_05 k__Fungi|p__Ascomycota|c__Eurotiomycetes|o__Eurotiales|f__Aspergillaceae|g__Penicillium|s__Penicill…
 6 asv_06 k__Fungi|p__Ascomycota|c__Eurotiomycetes|o__Eurotiales|f__Aspergillaceae|g__Penicillium|s__Penicill…
 7 asv_07 k__Fungi|p__Ascomycota|c__Eurotiomycetes|o__Eurotiales|f__Aspergillaceae|g__Penicillium|s__Penicill…
 8 asv_08 k__Fungi|p__Ascomycota|c__Eurotiomycetes|o__Eurotiales|f__Aspergillaceae|g__Penicillium|s__Penicill…
 9 asv_09 k__Fungi|p__Ascomycota|c__Eurotiomycetes|o__Eurotiales|f__Aspergillaceae|g__Penicillium|s__Penicill…
10 asv_10 k__Fungi|p__Ascomycota|c__Saccharomycetes|o__Saccharomycetales|f__Debaryomycetaceae|g__Debaryomyces…
# ℹ 64 more rows
…
data("cheese_taxonomy")

cheese_taxonomy %>% 
  select(asv, lineage) %>% 
  mutate(order = yatah::get_clade(lineage, "order"),
         genus = yatah::get_clade(lineage, "genus")) 

# A tibble: 74 × 4
   asv    lineage                                                                order           genus        
   <chr>  <chr>                                                                  <chr>           <chr>        
 1 asv_01 k__Fungi|p__Ascomycota|c__Dothideomycetes|o__Dothideales|f__Dothiorac… Dothideales     Aureobasidium
 2 asv_02 k__Fungi|p__Ascomycota|c__Eurotiomycetes|o__Eurotiales|f__Aspergillac… Eurotiales      Aspergillus  
 3 asv_03 k__Fungi|p__Ascomycota|c__Eurotiomycetes|o__Eurotiales|f__Aspergillac… Eurotiales      Penicillium  
 4 asv_04 k__Fungi|p__Ascomycota|c__Eurotiomycetes|o__Eurotiales|f__Aspergillac… Eurotiales      Penicillium  
 5 asv_05 k__Fungi|p__Ascomycota|c__Eurotiomycetes|o__Eurotiales|f__Aspergillac… Eurotiales      Penicillium  
 6 asv_06 k__Fungi|p__Ascomycota|c__Eurotiomycetes|o__Eurotiales|f__Aspergillac… Eurotiales      Penicillium  
 7 asv_07 k__Fungi|p__Ascomycota|c__Eurotiomycetes|o__Eurotiales|f__Aspergillac… Eurotiales      Penicillium  
 8 asv_08 k__Fungi|p__Ascomycota|c__Eurotiomycetes|o__Eurotiales|f__Aspergillac… Eurotiales      Penicillium  
 9 asv_09 k__Fungi|p__Ascomycota|c__Eurotiomycetes|o__Eurotiales|f__Aspergillac… Eurotiales      Penicillium  
10 asv_10 k__Fungi|p__Ascomycota|c__Saccharomycetes|o__Saccharomycetales|f__Deb… Saccharomyceta… Debaryomyces 
# ℹ 64 more rows

step_taxonomy()

cheese_taxonomy %>% 
  recipe(~ asv + lineage) %>% 
  step_taxonomy(lineage, rank = c("order", "genus")) %>% 
  prep() %>% 
  bake(new_data = NULL)

# A tibble: 74 × 3
   asv    lineage_order     lineage_genus
   <fct>  <chr>             <chr>        
 1 asv_01 Dothideales       Aureobasidium
 2 asv_02 Eurotiales        Aspergillus  
 3 asv_03 Eurotiales        Penicillium  
 4 asv_04 Eurotiales        Penicillium  
 5 asv_05 Eurotiales        Penicillium  
 6 asv_06 Eurotiales        Penicillium  
 7 asv_07 Eurotiales        Penicillium  
 8 asv_08 Eurotiales        Penicillium  
 9 asv_09 Eurotiales        Penicillium  
10 asv_10 Saccharomycetales Debaryomyces 
# ℹ 64 more rows
…
